unit,vehicle,geo\time	2013 	2012 	2011 	2010 	2009 	2008 	2007 	2006 	2005 	2004 	2003 	2002 	2001 	2000 	1999 	1998 	1997 	1996 	1995 	1994 	1993 	1992 	1991 	1990 	1989 	1988 	1987 	1986 	1985 	1984 	1983 	1982 	1981 	1980 	1979 	1978 	1977 	1976 	1975 	1974 	1973 	1972 	1971 	1970 
MIO_PKM,BUS_TOT,AT	: 	: 	: 	: 	: 	: 	9799 	9234 	9339 	9602 	9481 	9310 	9202 	9249 	8921 	8901 	8823 	8741 	8737 	8446 	8300 	8058 	7896 	7939 b	: 	: 	: 	: 	: 	: 	: 	: 	: 	: 	: 	: 	: 	: 	: 	: 	: 	: 	: 	: 
MIO_PKM,BUS_TOT,BE	: 	: 	: 	17260 	18670 	20370 	20220 	18080 	17520 	: 	: 	: 	: 	: 	: 	: 	: 	: 	: 	: 	: 	: 	: 	: 	: 	: 	: 	: 	: 	: 	: 	: 	: 	: 	: 	: 	: 	: 	: 	: 	: 	: 	: 	: 
MIO_PKM,BUS_TOT,BG	: 	10482.6 	9480.6 	9632.8 	9773.2 	11988.3 r	11903.4 	11744.7 	12006 	11762.3 	: 	: 	: 	: 	8186 	9513 	9383 	10003.5 	12287.5 	12915.5 	14166.6 	17088.3 	: 	25955 	: 	: 	: 	: 	: 	: 	: 	: 	: 	: 	: 	: 	: 	: 	: 	: 	: 	: 	: 	: 
MIO_PKM,BUS_TOT,CH	: 	5725 	5624 	5525 r	5435 r	5344 r	5673 r	5602 r	5312 r	5058 r	4994 r	4861 r	4848 r	4799 r	4725 r	4756 r	3100 r	3120 r	3202 r	3435 r	3456 r	3583 r	3627 	3318 	6981 	6726 	6469 	6241 	6022 	5829 	5798 	5782 	5589 	5424 	5242 	5103 	4896 	4725 	4599 	4617 	4543 	4386 	4276 	4156 
MIO_PKM,BUS_TOT,CZ	: 	14459 	14814 	16374 	14997 r	16107 	16121 r	16015 	15608 	14113.7 	15314.5 	16530.4 	17590.9 	16250.1 	15443.9 	15373 	15610.8 	16602.4 	11763 	12369 	13617 	: 	: 	: 	: 	: 	: 	: 	: 	: 	: 	: 	: 	: 	: 	: 	: 	: 	: 	: 	: 	: 	: 	: 
MIO_PKM,BUS_TOT,DK	: 	: 	: 	: 	: 	7250 	7250 	7498 	: 	: 	: 	8972 	9031 	9133 	9127 	9105 	11211 	11368 	10610 	9689 	9502 	9248 	: 	: 	: 	: 	: 	: 	: 	: 	: 	: 	: 	: 	: 	: 	: 	: 	: 	: 	: 	: 	: 	: 
MIO_PKM,BUS_TOT,EE	1929.6 	1881.3 	1725.4 	1734.2 	1890.5 r	2122.9 	2321.7 	2542.5 	2938 	2714 	2573 	2603 	2720 	2630 	1898.5 	2032.7 	: 	: 	: 	: 	: 	: 	: 	: 	: 	: 	: 	: 	: 	: 	: 	: 	: 	: 	: 	: 	: 	: 	: 	: 	: 	: 	: 	: 
MIO_PKM,BUS_TOT,EL	: 	: 	: 	: 	: 	: 	: 	: 	: 	: 	: 	: 	: 	: 	: 	: 	: 	: 	5671 	5566 	5158 	: 	: 	: 	: 	: 	: 	: 	: 	: 	: 	: 	: 	: 	: 	: 	: 	: 	: 	: 	: 	: 	: 	: 
MIO_PKM,BUS_TOT,ES	: 	54531 	55742 	50902 	57043 	60864 	59163 	49369 	53176 	53458 r	49209 r	50053 r	51712 r	50278 r	46142 r	43003 r	26598 	22747 	: 	: 	: 	: 	: 	: 	: 	: 	: 	: 	: 	: 	: 	: 	: 	: 	: 	: 	: 	: 	: 	: 	: 	: 	: 	: 
MIO_PKM,BUS_TOT,FI	7540 	7540 	7540 	7540 	7540 	7540 	7540 	7540 	7540 	7605 	7670 	7700 	7700 	7700 	7600 	7800 	8000 	8000 	8000 	8000 	8000 	8000 	8100 	8500 	: 	: 	: 	: 	: 	: 	: 	: 	: 	: 	: 	: 	: 	: 	: 	: 	: 	: 	: 	: 
MIO_PKM,BUS_TOT,FR	: 	51617 	51096 	49853 	48780 	48500 	47103 	44909 	43900 	44000 	42700 r	42200 r	41300 	43000 	41600 	42400 r	42000 	42400 	41600 	42700 	42000 	41800 	42900 	41300 	40200 	41800 	: 	: 	: 	: 	: 	: 	: 	: 	: 	: 	: 	: 	: 	: 	: 	: 	: 	: 
MIO_PKM,BUS_TOT,HR	3507 	3249 	3145 	3284 r	3438 r	4093 r	3808 	3537 	3403 	3390 	3717 r	3558 r	3478 	3331 	3355 	3964 	4459 	4266 	4052 	4041 	3361 	3731 	4460 	7004 	: 	: 	: 	: 	: 	: 	: 	: 	: 	: 	: 	: 	: 	: 	: 	: 	: 	: 	: 	: 
MIO_PKM,BUS_TOT,HU	: 	: 	16456 	16545 	: 	19929 	16739 	17528 	18027 	17492 	18898 	18691 	18616 	18732 	17793 	17179 	17377 	18202 	: 	: 	: 	: 	: 	: 	: 	: 	: 	: 	: 	: 	: 	: 	: 	: 	: 	: 	: 	: 	: 	: 	: 	: 	: 	: 
MIO_PKM,BUS_TOT,IE	: 	: 	343.44 	: 	: 	: 	: 	: 	: 	: 	: 	: 	: 	: 	: 	: 	: 	: 	: 	: 	: 	: 	: 	: 	: 	: 	: 	: 	: 	: 	: 	: 	: 	: 	: 	: 	: 	: 	: 	: 	: 	: 	: 	: 
MIO_PKM,BUS_TOT,IS	: 	: 	: 	: 	: 	: 	: 	: 	779 e	729 e	707 r	688 r	669 r	630 r	468 	458 	433 	: 	: 	: 	: 	: 	: 	: 	: 	: 	: 	: 	: 	: 	: 	: 	: 	: 	: 	: 	: 	: 	: 	: 	: 	: 	: 	: 
MIO_PKM,BUS_TOT,IT	: 	109998 	109551 	102220 	: 	: 	: 	: 	: 	: 	: 	: 	: 	: 	: 	: 	: 	: 	: 	: 	81447 	84964 	: 	: 	: 	: 	: 	: 	: 	: 	: 	: 	: 	: 	: 	: 	: 	: 	: 	: 	: 	: 	: 	: 
MIO_PKM,BUS_TOT,LI	: 	: 	: 	: 	: 	: z	: z	: z	: 	: z	: z	: 	: 	: 	: 	: 	: 	: 	: 	: 	: 	: 	: 	: 	: 	: 	: 	: 	: 	: 	: 	: 	: 	: 	: 	: 	: 	: 	: 	: 	: 	: 	: 	: 
MIO_PKM,BUS_TOT,LT	: 	: 	2748 	2693.6 	2774.7 	3422.1 	3620.1 	3695.3 r	3690.4 	3548.1 r	2986.7 r	3013.3 r	2832.5 r	2754.9 r	2665 	2964 	3601 	4169 	4169 	4627 	4522 	6391 	7798 	7889 	: 	: 	: 	: 	: 	: 	: 	: 	: 	: 	: 	: 	: 	: 	: 	: 	: 	: 	: 	: 
MIO_PKM,BUS_TOT,LU	: 	: 	: 	: 	: 	: 	: 	: 	: 	: 	: 	: 	64 	61 	60 	57 	: 	: 	: 	: 	: 	: 	: 	: 	: 	: 	: 	: 	: 	: 	: 	: 	: 	: 	: 	: 	: 	: 	: 	: 	: 	: 	: 	: 
MIO_PKM,BUS_TOT,LV	2732.5 	2749.2 	2820.09 r	2699.66 r	2389.17 r	2916.3 	3153.01 	3298.05 	3470.9 	3288.3 	3052.5 	2854.5 	2225.2 	2745.5 	2892 	2451 	2201 	2018 	2394 	2434 	2385 	3609 	6699 	7224 	: 	: 	: 	: 	: 	: 	: 	: 	: 	: 	: 	: 	: 	: 	: 	: 	: 	: 	: 	: 
MIO_PKM,BUS_TOT,MK	: 	1403 	1640 	1440 	1213 	1239 	1027 	1016 	1087 	: 	: 	842 	689 	673 	796 	753 	775 	710 	758 	: 	: 	: 	: 	: 	: 	: 	: 	: 	: 	: 	: 	: 	: 	: 	: 	: 	: 	: 	: 	: 	: 	: 	: 	: 
MIO_PKM,BUS_TOT,NL	: 	5300 	5900 	5700 	: 	: 	: 	5900 	6500 	6700 	6600 	7200 	7700 	7500 	: 	: 	: 	: 	: 	: 	10675 	10585 	: 	: 	: 	: 	: 	: 	: 	: 	: 	: 	: 	: 	: 	: 	: 	: 	: 	: 	: 	: 	: 	: 
MIO_PKM,BUS_TOT,NO	3738 	3788 	4748 	4506 	4401 	4360 	4268 r	4258 	4312 r	4231 	: 	: 	: 	4424 	4424 	4424 	4248 	4117 	3752 	: 	3935 	3935 	3935 	3890 	: 	: 	: 	: 	: 	: 	: 	: 	: 	: 	: 	: 	: 	: 	: 	: 	: 	: 	: 	: 
MIO_PKM,BUS_TOT,PL	: 	39419 e	40126 	21600 	: c	26791 r	27359 	28148 	49189 r	51068 r	29995.6 	29295.6 	30997 	31735 	33250 	34035 	33129 	33985 	34024 	46687 	48735 	: 	: 	46599 	: 	: 	: 	: 	: 	: 	: 	: 	: 	: 	: 	: 	: 	: 	: 	: 	: 	: 	: 	: 
MIO_PKM,BUS_TOT,PT	: 	4847 	4700 	: 	: 	: 	: 	: 	: 	: 	: 	9944 	11166 	11828 	11481 	11419 	10462 	11156 	11268 	11817 	12284 	14327 	: 	: 	: 	: 	: 	: 	: 	: 	: 	: 	: 	: 	: 	: 	: 	: 	: 	: 	: 	: 	: 	: 
MIO_PKM,BUS_TOT,RO	: 	: 	: 	: 	12805 	: 	12156 	11735 	11811.6 	9437.8 	: 	8739 	8997.8 	8689 	8848 	10643 	12557 	12842 	12343 	: 	: 	: 	: 	: 	: 	: 	: 	: 	: 	: 	: 	: 	: 	: 	: 	: 	: 	: 	: 	: 	: 	: 	: 	: 
MIO_PKM,BUS_TOT,SE	: 	: 	: 	8560 	8522 	8525 	8756 	8724 	8760 	8896 	9127 	9270 	9193 	9452 	9756 	9778 	9822 	9816 	9703 	9531 	9421 	9700 	9678 	9664 	10000 	9000 	8300 	7900 	7700 	7500 	7500 	7500 	7400 	7300 	7400 	7400 	7500 	7700 	8100 	8800 	9700 	8900 	8500 	8500 
MIO_PKM,BUS_TOT,SI	: 	: 	: 	3183 	3196 	3146 	3235 	3062 	3061 	3218 r	3446 r	3339 r	3393 r	3502 r	4138 r	3876 r	4379 r	4301 r	4113 r	4053 r	3894 r	4170 r	5554 	6508 	: 	: 	: 	: 	: 	: 	: 	: 	: 	: 	: 	: 	: 	: 	: 	: 	: 	: 	: 	: 
MIO_PKM,BUS_TOT,SK	: 	5211.9 	5418.9 	5372.2 	5502.2 	7308.3 	7936.3 	: 	9224 	9801 	9099 	9706 	10319 	10336 	13284 	14153 	15913 	17559 	18240 	14426 	15639 	18707 	: 	: 	: 	: 	: 	: 	: 	: 	: 	: 	: 	: 	: 	: 	: 	: 	: 	: 	: 	: 	: 	: 
MIO_PKM,BUS_TOT,TR	94846 	96559 	95334 	89056 	88426 	: 	: 	: 	: 	: 	: 	: 	: 	: 	: 	: 	: 	: 	: 	79170 	86914 	88358 	: 	84238 	: 	: 	: 	: 	: 	: 	: 	: 	: 	: 	: 	: 	: 	: 	: 	: 	: 	: 	: 	: 
MIO_PKM,BUS_TOT,UK	: 	41900 p	: 	: 	: 	: 	: 	: 	48000 	48000 	47000 	47000 	47000 	47000 	46000 	45000 	43200 	44180 	44290 	44260 	44180 	43000 	: 	: 	: 	: 	: 	: 	: 	: 	: 	: 	: 	: 	: 	: 	: 	: 	: 	: 	: 	: 	: 	: 
MIO_PKM,CAR,AT	: 	: 	: 	: 	: 	: 	72023 	70888 	70554 	69604 	68940 	67957 	67100 	66665 	66112 	64863 	63865 	63073 	62157 	61803 	59783 	58957 	57392 	55678 b	: 	: 	: 	: 	: 	: 	: 	: 	: 	: 	: 	: 	: 	: 	: 	: 	: 	: 	: 	: 
MIO_PKM,CAR,BE	: 	: 	: 	112640 	111470 	110900 	112080 	109800 	108880 	: 	: 	: 	: 	: 	: 	: 	: 	: 	: 	: 	: 	: 	: 	: 	: 	: 	: 	: 	: 	: 	: 	: 	: 	: 	: 	: 	: 	: 	: 	: 	: 	: 	: 	: 
MIO_PKM,CAR,CH	: 	86651 	84889 	83775 r	82459 r	80689 r	79261 r	78394 r	77844 r	77740 r	77001 r	76369 r	75494 r	74984 r	73531 r	72540 r	71406 r	70774 r	69586 r	68358 r	71417 r	73372 r	74744 r	73271 	72418 	70944 	69086 	68111 	66442 	67190 	65067 	64085 	61755 	61817 	59792 	58205 	56164 	52424 	51209 	48736 	47984 	46371 	44072 	41836 
MIO_PKM,CAR,CZ	: 	64260 e	65490 e	63570 e	72290 e	72380 e	71540 e	69630 e	68640 e	67570 e	67360 e	65290 e	63470 	63940 e	62400 e	60800 	59000 	57900 	54500 	51700 	49000 	: 	: 	: 	: 	: 	: 	: 	: 	: 	: 	: 	: 	: 	: 	: 	: 	: 	: 	: 	: 	: 	: 	: 
MIO_PKM,CAR,DE	: 	: 	: 	: 	: 	: 	: 	: 	: 	: 	: 	: 	: 	: 	: 	: 	: 	: 	731600 	719200 	729500 	: 	: 	: 	: 	: 	: 	: 	: 	: 	: 	: 	: 	: 	: 	: 	: 	: 	: 	: 	: 	: 	: 	: 
MIO_PKM,CAR,DK	: 	: 	: 	: 	: 	61037 	60957 	61948 	: 	: 	: 	59884 	58589 	59124 	59319 	57586 	55326 	53427 	51831 	51833 	55668 	54853 	: 	: 	: 	: 	: 	: 	: 	: 	: 	: 	: 	: 	: 	: 	: 	: 	: 	: 	: 	: 	: 	: 
MIO_PKM,CAR,EE	: 	: 	: 	: 	: 	: 	: 	9946 	11184 	: 	: 	: 	: 	: 	: 	: 	160 	158 	151 	107 	32 	: 	: 	: 	: 	: 	: 	: 	: 	: 	: 	: 	: 	: 	: 	: 	: 	: 	: 	: 	: 	: 	: 	: 
MIO_PKM,CAR,ES	: 	321045 	334021 	341629 	350401 	342611 	343293 	340937 	337797 	330192 r	345980 r	335872 r	306151 r	300904 r	293540 r	276173 r	134737 	129536 	: 	: 	: 	: 	: 	: 	: 	: 	: 	: 	: 	: 	: 	: 	: 	: 	: 	: 	: 	: 	: 	: 	: 	: 	: 	: 
MIO_PKM,CAR,FI	65115 	65270 	65490 	64745 	64330 	63400 	63785 	62455 	61910 	60940 	59590 	58300 	57000 	55700 	54900 	53300 	51900 	50400 	50000 	49600 	49700 	50500 	50600 	51200 	: 	: 	: 	: 	: 	: 	: 	: 	: 	: 	: 	: 	: 	: 	: 	: 	: 	: 	: 	: 
MIO_PKM,CAR,FR	: 	814994 	812656 	810793 	802887 	720200 	727816 	723794 	727400 	736900 	738600 	733500 	727600 	699600 	699600 	678600 r	659500 	649100 	640100 	651200 	629800 	617000 	599100 	585600 	570600 	556400 	: 	: 	: 	: 	: 	: 	: 	: 	: 	: 	: 	: 	: 	: 	: 	: 	: 	: 
MIO_PKM,CAR,HR	26145 e	26147 e	25242 e	: 	: 	: 	: 	: 	: 	: 	: 	: 	: 	: 	: 	: 	: 	: 	: 	: 	: 	: 	: 	: 	: 	: 	: 	: 	: 	: 	: 	: 	: 	: 	: 	: 	: 	: 	: 	: 	: 	: 	: 	: 
MIO_PKM,CAR,HU	: 	: 	52251 	: 	: 	: 	: 	: 	: 	: 	: 	: 	: 	46590 	46580 	46550 	46500 	46000 	: 	: 	: 	: 	: 	: 	: 	: 	: 	: 	: 	: 	: 	: 	: 	: 	: 	: 	: 	: 	: 	: 	: 	: 	: 	: 
MIO_PKM,CAR,IE	: 	: 	33228.5 	: 	: 	: 	: 	: 	: 	: 	: 	: 	: 	: 	: 	: 	: 	: 	: 	: 	: 	: 	: 	: 	: 	: 	: 	: 	: 	: 	: 	: 	: 	: 	: 	: 	: 	: 	: 	: 	: 	: 	: 	: 
MIO_PKM,CAR,IS	: 	: 	: 	: 	: 	: 	: 	: 	5322 e	4980 e	4826 r	4692 r	4562 r	4224 r	3712 	3561 	3360 	: 	: 	: 	: 	: 	: 	: 	: 	: 	: 	: 	: 	: 	: 	: 	: 	: 	: 	: 	: 	: 	: 	: 	: 	: 	: 	: 
MIO_PKM,CAR,IT	: 	578668 	665328 	698390 	: 	: 	: 	: 	: 	: 	: 	: 	: 	: 	: 	: 	: 	: 	: 	: 	603090 	602207 	: 	: 	: 	: 	: 	: 	: 	: 	: 	: 	: 	: 	: 	: 	: 	: 	: 	: 	: 	: 	: 	: 
MIO_PKM,CAR,LI	: 	: 	: 	: 	: 	: z	: z	: z	: 	: z	: z	: 	: 	: 	: 	: 	: 	: 	: 	: 	: 	: 	: 	: 	: 	: 	: 	: 	: 	: 	: 	: 	: 	: 	: 	: 	: 	: 	: 	: 	: 	: 	: 	: 
MIO_PKM,CAR,LT	: 	: 	29907.8 	32568.9 r	36055.3 	37990.7 	39118.8 	39471.8 	34792.6 e	25799.4 e	19393.7 e	16034.5 	: 	: 	: 	: 	: 	: 	: 	: 	: 	: 	: 	: 	: 	: 	: 	: 	: 	: 	: 	: 	: 	: 	: 	: 	: 	: 	: 	: 	: 	: 	: 	: 
MIO_PKM,CAR,LV	11733.4 	11528 	11349.9 	12312.34 	12703.69 	14252.5 e	: c	: c	12111.5 e	: c	: c	: c	: 	: 	: 	: 	: 	: 	: 	33 	43 	: 	: 	: 	: 	: 	: 	: 	: 	: 	: 	: 	: 	: 	: 	: 	: 	: 	: 	: 	: 	: 	: 	: 
MIO_PKM,CAR,NL	: 	: 	98 	90 	: 	: 	: 	148000 	148800 	151500 	146100 	144200 	141600 	141100 	: 	: 	151200 	145900 	146800 	145500 	138700 	130550 	: 	: 	: 	: 	: 	: 	: 	: 	: 	: 	: 	: 	: 	: 	: 	: 	: 	: 	: 	: 	: 	: 
MIO_PKM,CAR,NO	61513 	60704 	59903 	58831 	58296 	57743 	56674 r	54938 r	54027 r	52698 	: 	: 	: 	46744 	46121 	45780 	44878 	45217 	43659 	: 	42193 	41691 	41845 	42466 	: 	: 	: 	: 	: 	: 	: 	: 	: 	: 	: 	: 	: 	: 	: 	: 	: 	: 	: 	: 
MIO_PKM,CAR,PL	: 	208501 e	197835 r	297904 	285028 e	273503 e	: 	: 	152276 r	146827 e	: 	: 	: 	: 	: 	: 	: 	: 	: 	: 	: 	: 	: 	: 	: 	: 	: 	: 	: 	: 	: 	: 	: 	: 	: 	: 	: 	: 	: 	: 	: 	: 	: 	: 
MIO_PKM,CAR,RO	: 	: 	: 	: 	: 	: 	: 	: 	: 	0 	: 	: 	: 	: 	: 	: 	: 	: 	: 	: 	: 	: 	: 	: 	: 	: 	: 	: 	: 	: 	: 	: 	: 	: 	: 	: 	: 	: 	: 	: 	: 	: 	: 	: 
MIO_PKM,CAR,SE	: 	: 	: 	99207 	99406 	98422 	99315 	96988 	97310 	96975 	96325 	95420 	92780 	91868 	90754 	88811 	88107 	87983 	87622 	86650 	85683 	87552 	86494 	85945 	88100 	84000 	79200 	75500 	72900 	72300 	70000 	68500 	67500 	67400 	69500 	69400 	69000 	67200 	65000 	60700 	62700 	60000 	58100 	56100 
MIO_PKM,CAR,SI	: 	: 	: 	25636 	25775 	24878 	24355 	23018 	22509 	: 	21331 	21287 	20801 	20325 	20074 	18980 	19010 	17794 	16338 	15178 	13979 	13386 	12606 	13320 	: 	: 	: 	: 	: 	: 	: 	: 	: 	: 	: 	: 	: 	: 	: 	: 	: 	: 	: 	: 
MIO_PKM,CAR,TR	173332 	162315 	146931 	137857 	124038 	: 	: 	: 	: 	: 	: 	: 	: 	: 	: 	: 	: 	: 	: 	45736 	41848 	36889 	: 	34325 	: 	: 	: 	: 	: 	: 	: 	: 	: 	: 	: 	: 	: 	: 	: 	: 	: 	: 	: 	: 
MIO_PKM,CAR,UK	: 	642655 p	: 	: 	: 	: 	: 	: 	678000 p	673000 r	677000 r	677000 	654000 	639000 	642000 	636000 	632000 	621878 	608804 	607422 	596016 	587000 	: 	: 	: 	: 	: 	: 	: 	: 	: 	: 	: 	: 	: 	: 	: 	: 	: 	: 	: 	: 	: 	: 
MIO_PKM,MOTO,AT	: 	: 	: 	: 	: 	: 	1390 	1338 	1337 	1298 	1272 	1236 	1196 	1159 	1120 	1050 	978 	927 	879 	826 	789 	766 	744 	751 b	: 	: 	: 	: 	: 	: 	: 	: 	: 	: 	: 	: 	: 	: 	: 	: 	: 	: 	: 	: 
MIO_PKM,MOTO,BE	: 	: 	: 	1270 	1330 	1320 	1300 	1250 	1210 	: 	: 	: 	: 	: 	: 	: 	: 	: 	: 	: 	: 	: 	: 	: 	: 	: 	: 	: 	: 	: 	: 	: 	: 	: 	: 	: 	: 	: 	: 	: 	: 	: 	: 	: 
MIO_PKM,MOTO,CH	: 	2534 	2483 	2428 r	2338 r	2258 r	2140 r	2048 r	1935 r	2000 r	2068 r	2061 r	2071 r	2071 r	2025 r	1969 r	1925 r	1863 r	1866 r	1861 r	1985 r	2056 r	2130 	2199 r	2424 	2541 	2726 	2827 	2972 	3040 	3211 	3264 	3555 	3351 	3295 	3284 	3201 	3081 	3037 	3184 	3085 	3013 	2916 	2895 
MIO_PKM,MOTO,DE	: 	: 	: 	: 	: 	: 	: 	: 	: 	: 	: 	: 	: 	: 	: 	: 	: 	: 	12800 	12000 	11300 	: 	: 	: 	: 	: 	: 	: 	: 	: 	: 	: 	: 	: 	: 	: 	: 	: 	: 	: 	: 	: 	: 	: 
MIO_PKM,MOTO,DK	: 	: 	: 	: 	: 	582 	583 	946 	: 	: 	: 	783 	740 	711 	666 	610 	481 	445 	416 	396 	381 	370 	: 	: 	: 	: 	: 	: 	: 	: 	: 	: 	: 	: 	: 	: 	: 	: 	: 	: 	: 	: 	: 	: 
MIO_PKM,MOTO,ES	: 	1968 	1948 	2802 	2748 	1911 	2627 	2144 	1623 	1844 r	1928 r	1693 r	1804 r	1707 r	1647 r	1796 r	904 	873 	: 	: 	: 	: 	: 	: 	: 	: 	: 	: 	: 	: 	: 	: 	: 	: 	: 	: 	: 	: 	: 	: 	: 	: 	: 	: 
MIO_PKM,MOTO,FI	1161 	1161 	900 	900 	900 e	900 e	900 	900 	900 	900 	900 	900 	900 	900 	900 	900 	900 	900 	900 	900 	900 	900 	900 	800 	: 	: 	: 	: 	: 	: 	: 	: 	: 	: 	: 	: 	: 	: 	: 	: 	: 	: 	: 	: 
MIO_PKM,MOTO,FR	: 	: 	: 	13900 	13900 	: 	: 	: 	: 	: 	: 	: 	: 	: 	: 	: 	: 	: 	: 	: 	: 	: 	: 	: 	: 	: 	: 	: 	: 	: 	: 	: 	: 	: 	: 	: 	: 	: 	: 	: 	: 	: 	: 	: 
MIO_PKM,MOTO,HR	1207 e	1190 e	1068 e	: 	: 	: 	: 	: 	: 	: 	: 	: 	: 	: 	: 	: 	: 	: 	: 	: 	: 	: 	: 	: 	: 	: 	: 	: 	: 	: 	: 	: 	: 	: 	: 	: 	: 	: 	: 	: 	: 	: 	: 	: 
MIO_PKM,MOTO,IE	: 	: 	114 	: 	: 	: 	: 	: 	: 	: 	: 	: 	: 	: 	: 	: 	: 	: 	: 	: 	: 	: 	: 	: 	: 	: 	: 	: 	: 	: 	: 	: 	: 	: 	: 	: 	: 	: 	: 	: 	: 	: 	: 	: 
MIO_PKM,MOTO,IS	: 	: 	: 	: 	: 	: 	: 	: 	0 e	0 e	0 	0 	0 	0 	0 	0 	0 	: 	: 	: 	: 	: 	: 	: 	: 	: 	: 	: 	: 	: 	: 	: 	: 	: 	: 	: 	: 	: 	: 	: 	: 	: 	: 	: 
MIO_PKM,MOTO,IT	: 	42013 	42923 	41480 	: 	: 	: 	: 	: 	: 	: 	: 	: 	: 	: 	: 	: 	: 	: 	: 	66023 	64728 	: 	: 	: 	: 	: 	: 	: 	: 	: 	: 	: 	: 	: 	: 	: 	: 	: 	: 	: 	: 	: 	: 
MIO_PKM,MOTO,LI	: 	: 	: 	: 	: 	: z	: z	: z	: 	: z	: z	: 	: 	: 	: 	: 	: 	: 	: 	: 	: 	: 	: 	: 	: 	: 	: 	: 	: 	: 	: 	: 	: 	: 	: 	: 	: 	: 	: 	: 	: 	: 	: 	: 
MIO_PKM,MOTO,LT	: 	: 	262.1 	361.3 	151 	306 	103.6 	87.6 	: 	: 	: 	: 	: 	: 	: 	: 	: 	: 	: 	: 	: 	: 	: 	: 	: 	: 	: 	: 	: 	: 	: 	: 	: 	: 	: 	: 	: 	: 	: 	: 	: 	: 	: 	: 
MIO_PKM,MOTO,NL	: 	: 	: 	: 	: 	: 	: 	: 	: 	: 	: 	: 	: 	: 	: 	: 	1700 	1700 	1600 	1900 	1500 	1175 	: 	: 	: 	: 	: 	: 	: 	: 	: 	: 	: 	: 	: 	: 	: 	: 	: 	: 	: 	: 	: 	: 
MIO_PKM,MOTO,NO	1478 	1442 	1404 	1364 	1318 	1260 	1216 r	1201 r	1170 r	1319 	: 	: 	: 	1065 	1000 	924 	840 	768 	724 	: 	708 	704 	701 	705 	: 	: 	: 	: 	: 	: 	: 	: 	: 	: 	: 	: 	: 	: 	: 	: 	: 	: 	: 	: 
MIO_PKM,MOTO,PL	: 	3713 e	3579 e	: 	: 	: 	: 	: 	1298 e	1223 e	: 	: 	: 	: 	: 	: 	: 	: 	: 	: 	: 	: 	: 	: 	: 	: 	: 	: 	: 	: 	: 	: 	: 	: 	: 	: 	: 	: 	: 	: 	: 	: 	: 	: 
MIO_PKM,MOTO,RO	: 	: 	: 	: 	: 	: 	: 	: 	: 	0 	: 	: 	: 	: 	: 	: 	: 	: 	: 	: 	: 	: 	: 	: 	: 	: 	: 	: 	: 	: 	: 	: 	: 	: 	: 	: 	: 	: 	: 	: 	: 	: 	: 	: 
MIO_PKM,MOTO,SE	: 	: 	: 	919 	931 	898 	893 	834 	783 	746 	690 	656 	569 	507 	483 	438 	431 	405 	402 	398 	373 	373 	348 	331 	524 	528 	522 	535 	543 	540 	491 	411 	329 	274 	250 	243 	245 	246 	239 	239 	245 	222 	217 	215 
MIO_PKM,MOTO,TR	: 	: 	: 	: 	: 	: 	: 	: 	: 	: 	: 	: 	: 	: 	: 	: 	: 	: 	: 	15837 	17267 	16926 	: 	16428 	: 	: 	: 	: 	: 	: 	: 	: 	: 	: 	: 	: 	: 	: 	: 	: 	: 	: 	: 	: 
MIO_PKM,MOTO,UK	: 	4886 p	: 	: 	: 	: 	: 	: 	6000 	6000 	6000 	5000 	5000 	5000 	5000 	4000 	4000 	4000 	4000 	4000 	5000 	5000 	: 	: 	: 	: 	: 	: 	: 	: 	: 	: 	: 	: 	: 	: 	: 	: 	: 	: 	: 	: 	: 	: 
MIO_PKM,TOTAL,AT	: 	: 	: 	: 	: 	: 	83211 	81461 	81230 	80504 	79693 	78503 	77497 	77073 	76153 	74814 	73667 	72741 	71772 	71075 	68871 	67781 	66032 	64367 b	: 	: 	: 	: 	: 	: 	: 	: 	: 	: 	: 	: 	: 	: 	: 	: 	: 	: 	: 	: 
MIO_PKM,TOTAL,BE	: 	: 	: 	131170 	131470 	132590 	133600 	129130 	127610 	: 	: 	: 	: 	: 	: 	: 	: 	: 	: 	: 	: 	: 	: 	: 	: 	: 	: 	: 	: 	: 	: 	: 	: 	: 	: 	: 	: 	: 	: 	: 	: 	: 	: 	: 
MIO_PKM,TOTAL,BG	: 	10482.6 	9480.6 	9632.8 	9773.2 	: 	: 	: 	: 	: 	: 	: 	: 	: 	8186 	9513 	9383 	10003.5 	12287.5 	12915.5 	14166.6 	17088.3 	: 	25955 	: 	: 	: 	: 	: 	: 	: 	: 	: 	: 	: 	: 	: 	: 	: 	: 	: 	: 	: 	: 
MIO_PKM,TOTAL,CH	: 	94910 	92996 	91728 r	90232 r	88291 r	87074 r	86044 r	85091 r	84798 r	84063 r	83291 r	82413 r	81854 r	80281 r	79264 r	80098 r	79630 r	74654 r	77152 r	76858 r	79011 r	80501 r	78788 r	81823 	80211 	78281 	77179 	75436 	76059 	74076 	73131 	70699 	70592 	68329 	66592 	64261 	60230 	58845 	56537 	55612 	53770 	51264 	48887 
MIO_PKM,TOTAL,CZ	: 	78719 	80304 	79944 	87287 r	88487 r	87661 r	85645 	84248 	81683.7 	82674.5 	81820.4 	81060.9 	80190 r	77843.9 r	76173 	74610.8 	74502.4 	65463 	63223 	62617 	: 	: 	: 	: 	: 	: 	: 	: 	: 	: 	: 	: 	: 	: 	: 	: 	: 	: 	: 	: 	: 	: 	: 
MIO_PKM,TOTAL,DK	: 	: 	: 	: 	: 	69368 	69289 	70800 	: 	: 	: 	69640 	68360 	68968 	69111 	67301 	77433 	75482 	73188 	68505 	72049 	71150 	: 	: 	: 	: 	: 	: 	: 	: 	: 	: 	: 	: 	: 	: 	: 	: 	: 	: 	: 	: 	: 	: 
MIO_PKM,TOTAL,EE	: 	: 	: 	: 	: 	: 	: 	: 	: 	: 	: 	: 	: 	: 	2383 	2425 	2054 	1914 	1879 	2135 	2324 	: 	: 	: 	: 	: 	: 	: 	: 	: 	: 	: 	: 	: 	: 	: 	: 	: 	: 	: 	: 	: 	: 	: 
MIO_PKM,TOTAL,ES	: 	377544 	391711 	395332 	410192 	405386 	405083 	392450 	392596 	385494 r	397117 r	387618 r	359667 r	352889 r	341329 r	320972 r	162239 	153156 	: 	: 	: 	: 	: 	: 	: 	: 	: 	: 	: 	: 	: 	: 	: 	: 	: 	: 	: 	: 	: 	: 	: 	: 	: 	: 
MIO_PKM,TOTAL,FI	73816 	73971 	73930 	73185 	72770 	71840 	72225 	70895 	70350 	69445 	68160 	66900 	65600 	64300 	63400 	62000 	60800 	59300 	58900 	58500 	58600 	59400 	59600 	60500 	: 	: 	: 	: 	: 	: 	: 	: 	: 	: 	: 	: 	: 	: 	: 	: 	: 	: 	: 	: 
MIO_PKM,TOTAL,FR	: 	866611 	863752 	874546 	865567 	: 	: 	: 	: 	: 	: 	: 	: 	: 	: 	: 	: 	: 	: 	: 	: 	: 	: 	: 	: 	: 	: 	: 	: 	: 	: 	: 	: 	: 	: 	: 	: 	: 	: 	: 	: 	: 	: 	: 
MIO_PKM,TOTAL,HR	30859 	30586 e	29455 e	3284 r	3438 r	4093 r	3808 r	3537 r	3403 r	3390 r	3717 r	3558 r	3478 	3331 	3355 	3964 	4459 	4266 	4052 r	4041 r	3361 	3731 	4460 	7004 	: 	: 	: 	: 	: 	: 	: 	: 	: 	: 	: 	: 	: 	: 	: 	: 	: 	: 	: 	: 
MIO_PKM,TOTAL,IE	: 	: 	33686.07 	: 	: 	: 	: 	: 	: 	: 	: 	: 	: 	: 	: 	: 	: 	: 	: 	: 	: 	: 	: 	: 	: 	: 	: 	: 	: 	: 	: 	: 	: 	: 	: 	: 	: 	: 	: 	: 	: 	: 	: 	: 
MIO_PKM,TOTAL,IS	: 	: 	: 	: 	: 	: 	: 	: 	6101 e	5709 e	5533 r	5380 r	5231 r	4854 r	4180 	4019 	3793 	: 	: 	: 	: 	: 	: 	: 	: 	: 	: 	: 	: 	: 	: 	: 	: 	: 	: 	: 	: 	: 	: 	: 	: 	: 	: 	: 
MIO_PKM,TOTAL,IT	: 	730678 	817802 	842090 	: 	: 	: 	: 	: 	: 	: 	: 	: 	: 	: 	: 	: 	: 	: 	: 	750560 	751899 	: 	: 	: 	: 	: 	: 	: 	: 	: 	: 	: 	: 	: 	: 	: 	: 	: 	: 	: 	: 	: 	: 
MIO_PKM,TOTAL,LI	: 	: 	: 	: 	: 	: z	: z	: z	: 	: z	: z	: 	: 	: 	: 	: 	: 	: 	: 	: 	: 	: 	: 	: 	: 	: 	: 	: 	: 	: 	: 	: 	: 	: 	: 	: 	: 	: 	: 	: 	: 	: 	: 	: 
MIO_PKM,TOTAL,LT	: 	: 	32917.9 	35623.8 r	38980.6 	41718.8 	42842.5 	43254.7 r	: 	: 	: 	: 	: 	: 	: 	: 	: 	: 	: 	: 	: 	: 	: 	: 	: 	: 	: 	: 	: 	: 	: 	: 	: 	: 	: 	: 	: 	: 	: 	: 	: 	: 	: 	: 
MIO_PKM,TOTAL,LV	14465.9 	14277.2 	14169.99 r	15012 r	15092.86 r	17168.8 	19080.21 	17317.65 	15582.4 	14794.7 	13647.8 	12707.8 	: 	: 	: 	: 	: 	: 	: 	: 	: 	: 	: 	: 	: 	: 	: 	: 	: 	: 	: 	: 	: 	: 	: 	: 	: 	: 	: 	: 	: 	: 	: 	: 
MIO_PKM,TOTAL,MK	: 	1403 	1640 	1440 	1213 	1239 	1027 	1016 	1087 	: 	: 	842 	689 	673 	796 	753 	775 	710 	758 	1032.764 	1158.273 	1325.65 	1190.093 	1492 	: 	: 	: 	: 	: 	: 	: 	: 	: 	: 	: 	: 	: 	: 	: 	: 	: 	: 	: 	: 
MIO_PKM,TOTAL,NL	: 	144400 	144400 	144200 	: 	: 	: 	: 	: 	: 	: 	: 	: 	: 	: 	: 	: 	: 	: 	: 	145165 	142310 	: 	: 	: 	: 	: 	: 	: 	: 	: 	: 	: 	: 	: 	: 	: 	: 	: 	: 	: 	: 	: 	: 
MIO_PKM,TOTAL,NO	66729 	65934 	66055 	64700 	64014 	63363 	62158 r	60397 r	59509 r	58247 	: 	: 	: 	54351 	53643 	53101 	51546 	51313 	49205 	: 	46836 	46330 	46481 	47061 	: 	: 	: 	: 	: 	: 	: 	: 	: 	: 	: 	: 	: 	: 	: 	: 	: 	: 	: 	: 
MIO_PKM,TOTAL,PL	: 	251633 e	241540 	319504 	309414 	300294 	27359 	28148 n	202763 r	199118 r	29995.6 	29295.6 	30997 	31735 	33250 	: 	: 	: 	: 	: 	: 	: 	: 	: 	: 	: 	: 	: 	: 	: 	: 	: 	: 	: 	: 	: 	: 	: 	: 	: 	: 	: 	: 	: 
MIO_PKM,TOTAL,RO	17082 	16901 	15529 	11955 	12805 	: 	12156 	11735 	11811.6 	9437.8 	: 	13074 	15267.3 	15538.05 	15903 	18569 	13152 	25670 	26691.4 	28313.5 	33473.3 	41779.3 	: 	: 	: 	: 	: 	: 	: 	: 	: 	: 	: 	: 	: 	: 	: 	: 	: 	: 	: 	: 	: 	: 
MIO_PKM,TOTAL,SE	: 	: 	: 	108685 	108859 	107844 	108965 	106546 	106853 	106616 	106141 	105345 	102541 	101826 	100993 	99027 	98360 	98204 	97728 	96579 	95477 	97625 	96520 	95939 	98624 	93528 	88022 	83935 	81143 	80340 	77991 	76411 	75229 	74974 	77150 	77043 	76745 	75146 	73339 	69739 	72645 	69122 	66817 	64815 
MIO_PKM,TOTAL,SI	: 	: 	: 	28819 	28971 	28024 	27590 	26080 	25570 	: 	24777 	24626 	24194 	23827 	24211 	22856 	23388 	22095 	20451 	19231 	17872 	17555 	18160 	19829 	: 	: 	: 	: 	: 	: 	: 	: 	: 	: 	: 	: 	: 	: 	: 	: 	: 	: 	: 	: 
MIO_PKM,TOTAL,SK	: 	5211.9 	5418.9 	5372.2 	5502.2 	7308.3 	7936.3 	: 	9224 	9801 	9099 	9706 	10319 	10336 	13284 	14153 	15913 	17559 	: 	: 	: 	: 	: 	: 	: 	: 	: 	: 	: 	: 	: 	: 	: 	: 	: 	: 	: 	: 	: 	: 	: 	: 	: 	: 
MIO_PKM,TOTAL,TR	268168 	258874 	242265 	226913 	212464 	206098 r	209115 	187593 	182152 	174312 	164311 	163327 	168211 	185681 	: 	: 	: 	: 	155202 	140743 	146029 	142173 	131029 	134991 	: 	: 	: 	: 	: 	: 	: 	: 	: 	: 	: 	: 	: 	: 	: 	: 	: 	: 	: 	: 
MIO_PKM,TOTAL,UK	: 	689441 p	: 	: 	: 	: 	: 	: 	731000 p	732000 	727000 	729000 	706000 	691000 	693000 	685000 	679200 	670058 	656994 	659682 	649196 	635000 	: 	: 	: 	: 	: 	: 	: 	: 	: 	: 	: 	: 	: 	: 	: 	: 	: 	: 	: 	: 	: 	: 
